D:\SERENITY_SCREENPLAY\src\main\java\Tasks\ClickButton.java
D:\SERENITY_SCREENPLAY\src\main\java\Questions\Notification.java
D:\SERENITY_SCREENPLAY\src\main\java\Questions\ElementAvailability.java
D:\SERENITY_SCREENPLAY\src\main\java\UI_Interface\CommonUI.java
D:\SERENITY_SCREENPLAY\src\main\java\UI_Interface\GoogleSearchPage.java
D:\SERENITY_SCREENPLAY\src\main\java\Tasks\InputTextBox.java
D:\SERENITY_SCREENPLAY\src\main\java\Tasks\Application.java
